<svg width="40" height="32" viewBox="0 0 40 32" fill="none" xmlns="http://www.w3.org/2000/svg">
<path d="M36 0H4C1.78 0 0.02 1.78 0.02 4L0 28C0 30.22 1.78 32 4 32H36C38.22 32 40 30.22 40 28V4C40 1.78 38.22 0 36 0ZM34 28H6C4.9 28 4 27.1 4 26V16H36V26C36 27.1 35.1 28 34 28ZM36 8H4V4H36V8Z" fill="#293845"/>
</svg>
