<svg width="24" height="30" viewBox="0 0 24 30" fill="none" xmlns="http://www.w3.org/2000/svg">
<path d="M10.92 0.813343L1.58667 4.96001C0.626667 5.38668 0 6.34668 0 7.40001V13.6667C0 21.0667 5.12 27.9867 12 29.6667C18.88 27.9867 24 21.0667 24 13.6667V7.40001C24 6.34668 23.3733 5.38668 22.4133 4.96001L13.08 0.813343C12.4 0.506677 11.6 0.506677 10.92 0.813343ZM12 14.9867H21.3333C20.6267 20.48 16.96 25.3733 12 26.9067V15H2.66667V7.40001L12 3.25334V14.9867Z" fill="#323232"/>
</svg>
