<svg width="32" height="32" viewBox="0 0 32 32" fill="none" xmlns="http://www.w3.org/2000/svg">
<path fill-rule="evenodd" clip-rule="evenodd" d="M16 0C7.16344 0 0 7.16344 0 16C0 24.8366 7.16344 32 16 32C24.8366 32 32 24.8366 32 16C32 7.16344 24.8366 0 16 0ZM22.6677 10.4996C23.402 10.7011 23.9803 11.2948 24.1766 12.0488C24.5333 13.4154 24.5333 16.2667 24.5333 16.2667C24.5333 16.2667 24.5333 19.1179 24.1766 20.4845C23.9803 21.2385 23.402 21.8323 22.6677 22.0339C21.3369 22.4 15.9999 22.4 15.9999 22.4C15.9999 22.4 10.663 22.4 9.3321 22.0339C8.59775 21.8323 8.01943 21.2385 7.82316 20.4845C7.4666 19.1179 7.4666 16.2667 7.4666 16.2667C7.4666 16.2667 7.4666 13.4154 7.82316 12.0488C8.01943 11.2948 8.59775 10.7011 9.3321 10.4996C10.663 10.1333 15.9999 10.1333 15.9999 10.1333C15.9999 10.1333 21.3369 10.1333 22.6677 10.4996Z" fill="white"/>
<path d="M14.3999 19.2V13.8667L18.6666 16.5335L14.3999 19.2Z" fill="white"/>
</svg>
