<svg width="435" height="156" viewBox="0 0 435 156" fill="none" xmlns="http://www.w3.org/2000/svg">
<g clip-path="url(#clip0_402_14584)">
<path fill-rule="evenodd" clip-rule="evenodd" d="M129 53.8C103.8 48.5 89.7 52.5 77.9 59.9C67.5 66.4 61.1 80 65.2 89.5C65.8 90.8 66.4 92.1 67 93.3C68.7 91.9 82.5 80.3 98 76.6C78.4 85.2 68.7 96.3 68.7 96.3C64.4 100.5 60.6 105.5 58.9 111.4C51.8 85.4 61 51.6 80.5 32.3C82.8 34.3 85.7 35.3 89.6 35.2C93.3 35.1 97.7 33.8 100.5 31.2C108.3 24.5 104.8 9.90002 115.4 1.50002C99.4 -1.89998 90.5 0.700017 83.1 5.30002C76.7 9.50002 72.7 18 75.2 24.1C75.8 25.4 76.3 26.6 77 27.7C78.1 26.6 90.2 14.1 100.8 9.70002C89.7 16.8 78.2 29.2 78 29.5C68.6 39.4 61.2 52.3 56.5 65.7C55.7 60.7 54.4 56 52.3 51.5C52.2 51.4 52.2 51.2 52.1 51.1V51L52 50.9V50.8V50.7V50.7L51.9 50.6L51.8 50.5L51.7 50.4V50.3H51.6L51.5 50.2L51.6 50L51.5 49.7L51.4 49.6V49.5L51.3 49.4L51.2 49.3L51.1 49.2L51 49.1V49V49V48.9L50.9 48.8H50.8L50.7 48.7L50.6 48.5L50.5 48.4V48.3L50.4 48.2L50.5 48L50.3 47.7L50.2 47.6V47.5L50.1 47.4L50 47.3V47.2L49.9 47.1L49.8 47L49.7 46.9L49.6 46.8L49.5 46.6L49.4 46.5L49.3 46.3L49.2 46.2L49.1 46.1L49.2 46L49.1 45.8L49 45.7H48.9L48.8 45.5L48.7 45.3L48.6 45.2L48.5 45L48.4 44.8L48.3 44.6L48.2 44.4H48.1L48 44.3L47.9 44.1V44L47.8 43.9L47.7 43.7L47.6 43.5V43.4L47.5 43.3L47.4 43.1L47.2 43L47.1 42.9L47 42.7L46.9 42.5L46.8 42.3L46.7 42.1C42.2 36 35.5 28.4 27.2 23.9C39.3 27.1 50.8 41.7 54.7 47.1C55.5 45.7 56.2 44.2 56.9 42.6C60.5 34.4 54.9 22.5 45.9 16.9C35.7 10.5 23.4 7.00002 1.5 11.6C16 23.1 11.3 43.3 22 52.5C26 56 31.9 57.7 37.1 57.9C42.3 58.1 46.1 56.8 49.2 54.2C52.4 60.6 53.3 67.8 52 84.1C50 96.3 50.5 108 53.8 117.6C57.3 128 57.8 129.2 68 141.9C71.2 139.3 82.7 147.2 72.7 135.3C71 133.2 69.4 131.2 67.9 129.2H68C63.6 123.4 61.9 118.2 62.5 113.4C63.1 109.3 66.7 104 70.9 99.4C75 104.6 80.2 107.4 88.2 107.1C94.2 106.8 101 104.8 105.6 100.9C117.8 90.3 112.4 67 129 53.8Z" fill="white"/>
<path fill-rule="evenodd" clip-rule="evenodd" d="M70.8 138.3C105.2 138.3 134 144.8 141.5 151C122.4 147.9 97.6 145.7 70.6 145.7C43.6 145.7 19 148 0 151C7.5 144.7 36.4 138.3 70.8 138.3Z" fill="white"/>
<path d="M433 146.9C430.2 147.9 427.3 148.5 424.2 148.5C412.4 148.5 407 138 407 127.5H434.1V125.3C434.1 114.5 428.6 106.5 417.2 106.5C403.8 106.5 398.2 115.9 398.2 128.7C398.2 144 404.7 155.4 421.4 155.4C425.4 155.4 429.2 154.7 433.1 153.8V146.9H433ZM407.4 121.6C407.4 120.7 407.7 119.7 408.1 118.8C409.7 115.3 412.9 113.4 416.7 113.4C421.6 113.4 425.3 116.6 425.3 121.6H407.4Z" fill="white"/>
<path d="M391.7 147.5C389.3 148.2 386.9 148.5 384.3 148.5C371.5 148.5 365.7 139.4 365.7 127.6C365.7 121.7 367.8 113.4 375.3 113.4C381.1 113.4 382.5 118 382.5 122.8H392.6C392.6 112.2 386.5 106.5 375.9 106.5C361.9 106.5 356 116.3 356 129.3C356 143.7 363.2 155.4 378.9 155.4C383.3 155.4 387.6 155 391.8 153.6V147.5H391.7Z" fill="white"/>
<path d="M348.4 154.3V121.9C348.4 113.8 345.1 106.5 335.8 106.5C328.5 106.5 323.6 110.9 321 117.6H320.8V107.6H312V154.4H320.8V134.5C320.8 127.6 324.5 115.4 333.2 115.4C338.2 115.4 339.2 118.8 339.5 123C339.6 125 339.6 127 339.6 128.8V154.3H348.4V154.3Z" fill="white"/>
<path d="M304.4 154.3V121.5C304.4 111.5 299.3 106.5 289.1 106.5C279.8 106.5 271.6 110.1 271.6 120.5H280.9C280.9 115.9 283.7 113.3 288.4 113.3C292.4 113.3 295.6 115.5 295.6 120.2V127.4C285.5 127.4 270.1 129.6 270.1 142.7C270.1 150.8 275.5 155.2 283.4 155.2C288.2 155.2 293.4 152.7 295.4 148.3H295.6V154.1H304.4V154.3ZM295.6 136C295.6 141.5 291 148.5 285 148.5C281.8 148.5 279.9 145.4 279.9 142.5C279.9 135.9 288.3 133.4 293.8 133.4H295.6V136V136Z" fill="white"/>
<path d="M262.5 154.3V121.9C262.5 113.8 259.3 106.5 249.9 106.5C242.6 106.5 237.7 110.9 235.1 117.6H234.9V107.6H226.1V154.4H234.9V134.5C234.9 127.6 238.6 115.4 247.3 115.4C252.3 115.4 253.3 118.8 253.6 123C253.7 125 253.7 127 253.7 128.8V154.3H262.5V154.3Z" fill="white"/>
<path d="M214.8 107.6H206V154.4H214.8V107.6Z" fill="white"/>
<path d="M214.8 89.8999H206V99.7999H214.8V89.8999Z" fill="white"/>
<path d="M170 154.3V123H195.1V115.1H170V94.4001H196.4V86.6001H160.1V154.3H170Z" fill="white"/>
<path d="M346.4 47.5C354 47.5 357 48.3 359.8 57L363.3 67.7H372.9C371.2 63.1 370 58.4 368.1 53.7C365.3 45.4 362 42.6 355.6 41.6L373 21H362.2C356.9 27.8 351.6 34.5 346.4 41.3V0H337.4V67.8H346.4V47.5Z" fill="white"/>
<path d="M261.9 5.3999H253.1V15.2999H261.9V5.3999Z" fill="white"/>
<path d="M282.7 0H273.9V67.8H282.7V0Z" fill="white"/>
<path d="M261.9 21H253.1V67.8H261.9V21Z" fill="white"/>
<path d="M242.4 67.8V35C242.4 25 237.3 20 227.1 20C217.8 20 209.6 23.6 209.6 34H218.9C218.9 29.4 221.7 26.8 226.4 26.8C230.3 26.8 233.6 29 233.6 33.7V40.9C223.4 40.9 208.1 43.1 208.1 56.2C208.1 64.3 213.5 68.7 221.4 68.7C226.2 68.7 231.4 66.2 233.4 61.8H233.6V67.6H242.4V67.8ZM233.6 49.5C233.6 55 229 62 223 62C219.8 62 217.9 58.9 217.9 56C217.9 49.4 226.3 46.9 231.8 46.9H233.6V49.5V49.5Z" fill="white"/>
<path d="M178.9 67.8001C191.3 67.8001 200.6 63.2001 200.6 49.2001C200.6 40.3001 196.1 33.1001 186.9 31.9001V31.7001C194.1 28.9001 197.4 23.9001 197.4 16.2001C197.4 5.4001 189.8 0.100098 179.8 0.100098H160.2V67.9001H178.9V67.8001ZM169.9 59.9001V35.9001H176.5C184.6 35.9001 190.8 39.5001 190.8 48.2001C190.8 56.0001 184.9 59.9001 177.6 59.9001H169.9V59.9001ZM169.9 28.1001V7.8001H175.5C182.6 7.8001 187.5 9.4001 187.5 17.8001C187.5 25.2001 182.9 28.0001 176.1 28.0001H169.9V28.1001Z" fill="white"/>
<path d="M307.8 80.6L328.5 21H319.8L310 51.1H309.8L298.8 21H290.1L305.9 62.9L300.1 80.6H307.8Z" fill="white"/>
</g>
<defs>
<clipPath id="clip0_402_14584">
<rect width="434.2" height="155.4" fill="white"/>
</clipPath>
</defs>
</svg>
